generated/RegisterFile.vcd
$date
2021-11-01T12:37+0000
$end
$version
0.2
$end
$comment

$end
$timescale 1ns  $end
$scope module RegisterFile $end
 $var wire 32 ! R4Reg $end
 $var wire 32 " R2Reg $end
 $var wire 32 # _GEN_37 $end
 $var wire 32 $ _GEN_22 $end
 $var wire 32 % R0Reg $end
 $var wire 32 & _GEN_16 $end
 $var wire 32 ' _GEN_43 $end
 $var wire 32 ( _GEN_2 $end
 $var wire 32 ) _GEN_10 $end
 $var wire 1 * _T $end
 $var wire 32 + _GEN_31 $end
 $var wire 32 , _GEN_19 $end
 $var wire 32 - _GEN_25 $end
 $var wire 32 . _GEN_5 $end
 $var wire 32 / _GEN_13 $end
 $var wire 3 0 io_bSel $end
 $var wire 32 1 _GEN_57 $end
 $var wire 32 2 _GEN_8 $end
 $var wire 32 3 _GEN_42 $end
 $var wire 32 4 _GEN_51 $end
 $var wire 32 5 _GEN_24 $end
 $var wire 32 6 _GEN_30 $end
 $var wire 32 7 _GEN_39 $end
 $var wire 32 8 _GEN_45 $end
 $var wire 32 9 _GEN_27 $end
 $var wire 32 : _GEN_48 $end
 $var wire 32 ; _GEN_33 $end
 $var wire 32 < _GEN_54 $end
 $var wire 32 = _GEN_12 $end
 $var wire 32 > R7Reg $end
 $var wire 32 ? _GEN_15 $end
 $var wire 32 @ _GEN_7 $end
 $var wire 32 A _GEN_36 $end
 $var wire 32 B _GEN_21 $end
 $var wire 32 C io_b $end
 $var wire 32 D _GEN_1 $end
 $var wire 32 E _GEN_18 $end
 $var wire 32 F R5Reg $end
 $var wire 32 G R3Reg $end
 $var wire 32 H _GEN_4 $end
 $var wire 32 I R1Reg $end
 $var wire 32 J _GEN_53 $end
 $var wire 32 K _GEN_56 $end
 $var wire 32 L _GEN_41 $end
 $var wire 1 M clock $end
 $var wire 32 N _GEN_35 $end
 $var wire 1 O io_writeEnable $end
 $var wire 32 P io_writeData $end
 $var wire 32 Q _GEN_50 $end
 $var wire 32 R _GEN_23 $end
 $var wire 32 S _GEN_38 $end
 $var wire 32 T _GEN_17 $end
 $var wire 32 U _GEN_26 $end
 $var wire 32 V _GEN_32 $end
 $var wire 3 W io_aSel $end
 $var wire 32 X _GEN_47 $end
 $var wire 32 Y _GEN_11 $end
 $var wire 32 Z _GEN_20 $end
 $var wire 32 [ _GEN_29 $end
 $var wire 32 \ _GEN_6 $end
 $var wire 32 ] _GEN_14 $end
 $var wire 32 ^ _GEN_0 $end
 $var wire 32 _ io_a $end
 $var wire 32 ` R6Reg $end
 $var wire 32 a _GEN_9 $end
 $var wire 32 b _GEN_58 $end
 $var wire 32 c _GEN_52 $end
 $var wire 1 d reset $end
 $var wire 32 e _GEN_3 $end
 $var wire 32 f _GEN_46 $end
 $var wire 32 g _GEN_34 $end
 $var wire 32 h _GEN_28 $end
 $var wire 32 i _GEN_40 $end
 $var wire 32 j _GEN_49 $end
 $var wire 32 k _GEN_55 $end
$upscope $end
$enddefinitions $end
$dumpvars
b00000000000000000000000000000000 Y
b00000000000000000000000000000000 D
b00000000000000000000000000000000 <
b00000000000000000000000000000000 '
b00000000000000000000000000000000 [
b00000000000000000000000000000000 S
b00000000000000000000000000000000 >
b00000000000000000000000000000000 !
b00000000000000000000000000000000 j
b00000000000000000000000000000000 U
b00000000000000000000000000000000 8
b00000000000000000000000000000000 #
b00000000000000000000000000000000 :
b00000000000000000000000000000000 2
b00000000000000000000000000000000 f
b00000000000000000000000000000000 Q
b00000000000000000000000000000000 I
b00000000000000000000000000000000 4
b00000000000000000000000000000000 h
b00000000000000000000000000000000 `
b00000000000000000000000000000000 K
b00000000000000000000000000000000 6
b00000000000000000000000000000000 .
b00000000000000000000000000000000 b
b00000000000000000000000000000000 E
b00000000000000000000000000000000 \
b00000000000000000000000000000000 G
b00000000000000000000000000000000 ^
b00000000000000000000000000000000 A
b00000000000000000000000000000000 ,
b00000000000000000000000000000000 $
b00000000000000000000000000000000 X
b00000000000000000000000000000000 C
b00000000000000000000000000000000 ;
b00000000000000000000000000000000 &
b00000000000000000000000000000000 Z
b00000000000000000000000000000000 =
b00000000000000000000000000000000 (
b00000000000000000000000000000000 T
b00000000000000000000000000000000 ?
b00000000000000000000000000000000 7
b00000000000000000000000000000000 "
b00000000000000000000000000000000 k
b00000000000000000000000000000000 V
0M
b00000000000000000000000000000000 9
b00000000000000000000000000000000 N
0d
b00000000000000000000000000000000 P
b00000000000000000000000000000000 e
0O
b00000000000000000000000000000000 3
b00000000000000000000000000000000 g
b00000000000000000000000000000000 R
b00000000000000000000000000000000 J
b00000000000000000000000000000000 5
b00000000000000000000000000000000 i
b00000000000000000000000000000000 a
b00000000000000000000000000000000 L
b000 W
b00000000000000000000000000000000 /
b00000000000000000000000000000000 c
b00000000000000000000000000000000 F
b00000000000000000000000000000000 1
b00000000000000000000000000000000 )
b00000000000000000000000000000000 ]
b00000000000000000000000000000000 H
b00000000000000000000000000000000 @
0*
b00000000000000000000000000000000 +
b00000000000000000000000000000000 _
b00000000000000000000000000000000 B
b00000000000000000000000000000000 -
b00000000000000000000000000000000 %
b000 0
$end
#0
1d
1*
#1
1M
#6
0M
#11
1M
#16
0M
#21
1M
#26
0M
#31
1M
#36
0M
#41
1M
#46
b001 0
0d
b00000000000000000000000001100100 P
0M
#51
1M
#56
b00000000000000000000000001100100 @
b00000000000000000000000001100100 .
b00000000000000000000000001100100 D
b00000000000000000000000001100100 e
b00000000000000000000000001100100 '
b00000000000000000000000001100100 H
1O
b00000000000000000000000001100100 (
b00000000000000000000000001100100 ^
0M
b00000000000000000000000001100100 \
#61
b00000000000000000000000001100100 %
1M
b00000000000000000000000001100100 _
#66
b00000000000000000000000000000000 @
b00000000000000000000000000000000 .
b00000000000000000000000000000000 D
b00000000000000000000000000000000 e
b00000000000000000000000000000000 H
0O
b00000000000000000000000000000000 (
0M
b00000000000000000000000000000000 \
#71
1M
#76
b00000000000000000000000001100100 C
b00000000000000000000000011001000 .
b00000000000000000000000011001000 D
b00000000000000000000000011001000 (
0M
b00000000000000000000000011001000 \
b000 0
b00000000000000000000000011001000 @
b00000000000000000000000011001000 8
b00000000000000000000000011001000 e
0*
b00000000000000000000000011001000 H
b001 W
1O
b00000000000000000000000011001000 ^
b00000000000000000000000011001000 A
b00000000000000000000000011001000 P
b00000000000000000000000000000000 _
#81
b00000000000000000000000011001000 N
b00000000000000000000000011001000 I
1M
b00000000000000000000000011001000 _
#86
b00000000000000000000000000000000 @
b00000000000000000000000000000000 .
b00000000000000000000000000000000 e
b00000000000000000000000000000000 H
0O
b00000000000000000000000000000000 (
b00000000000000000000000001100100 ^
0M
b00000000000000000000000000000000 \
